[
    {
        "imgsource": "https://images.unsplash.com/photo-1535585209827-a15fcdbc4c2d?ixlib=rb-0.3.5&ixid=eyJhcHBfaWQiOjEyMDd9&s=1eb1248f153f1fe243de6e216303be95&auto=format&fit=crop&w=1350&q=80"
    },
    {
        "imgsource": "https://images.unsplash.com/photo-1525904097878-94fb15835963?ixlib=rb-0.3.5&ixid=eyJhcHBfaWQiOjEyMDd9&s=3324f72b655cd99f12cfa4e0947109ad&auto=format&fit=crop&w=1350&q=80"
    },
    {
        "imgsource": "https://images.unsplash.com/photo-1529634885322-b17ffaf423ac?ixlib=rb-0.3.5&s=8b0d0b94d7b5f966158518bd100d28d3&auto=format&fit=crop&w=1051&q=80"
    }
]